lab10
…
      vars(AB, H, BB, HBP, SF, X2B, X3B, HR),
      list(sum)
      ) %>%
    mutate(
      X1B = H - X2B - X3B - HR,
      OBP = (H + BB + HBP) / (AB + BB + HBP + SF),
      SLG = (1*X1B + 2*X2B + 3*X3B + 4*HR) / AB,
      OPS = OBP + SLG) %>%   
    left_join(LeagueData, by = c("yearID" = "yearID")) %>%
    mutate(OPSplus = 100 * OPS / lgOPS)
  return(result)
}
getOPSdata("Babe", "Ruth")

## # A tibble: 22 x 17
## # Groups:   Age, playerID [22]
##      Age playerID yearID    AB     H    BB   HBP    SF   X2B   X3B    HR
##    <int> <chr>     <int> <int> <int> <int> <int> <int> <int> <int> <int>
##  1    19 ruthba01   1914    10     2     0     0    NA     1     0     0
##  2    20 ruthba01   1915    92    29     9     0    NA    10     1     4
##  3    21 ruthba01   1916   136    37    10     0    NA     5     3     3
##  4    22 ruthba01   1917   123    40    12     0    NA     6     3     2
##  5    23 ruthba01   1918   317    95    58     2    NA    26    11    11
##  6    24 ruthba01   1919   432   139   101     6    NA    34    12    29
##  7    25 ruthba01   1920   457   172   150     3    NA    36     9    54
##  8    26 ruthba01   1921   540   204   145     4    NA    44    16    59
##  9    27 ruthba01   1922   406   128    84     1    NA    24     8    35
## 10    28 ruthba01   1923   522   205   170     4    NA    45    13    41
## #  with 12 more rows, and 6 more variables: X1B <int>, OBP <dbl>,
## #   SLG <dbl>, OPS <dbl>, lgOPS <dbl>, OPSplus <dbl>

firstList <- c("Ty", "Babe", "Lou", "Ted", "Jackie", "Hank", 
               "Roberto", "Reggie", "Cal", "Barry", "Alex", "Miguel")
lastList <- c("Cobb", "Ruth", "Gehrig", "Williams", "Robinson", "Aaron", 
              "Clemente", "Jackson", "Ripken", "Bonds", "Rodriguez", "Cabrera")
allData <- 
  mapply(
    FUN = getOPSdata, 
    firstName = firstList, 
    lastName = lastList,
    SIMPLIFY = FALSE) %>%
  bind_rows()
allData %>% select(Age,playerID, yearID, OPSplus)

## # A tibble: 235 x 4
## # Groups:   Age, playerID [235]
##      Age playerID yearID OPSplus
##    <int> <chr>     <int>   <dbl>
##  1    19 cobbty01   1905      NA
##  2    20 cobbty01   1906      NA
##  3    21 cobbty01   1907      NA
##  4    22 cobbty01   1908      NA
##  5    23 cobbty01   1909      NA
##  6    24 cobbty01   1910      NA
##  7    25 cobbty01   1911      NA
##  8    26 cobbty01   1912      NA
##  9    27 cobbty01   1913      NA
## 10    28 cobbty01   1914      NA
## #  with 225 more rows
…
