lab11
…
contain_pro <- beatles_songs %>%
  mutate(
    contain_pronouns = grepl("(I|You|Me|My|Your|He|She)", Song)) %>%
  group_by(Song) %>% 
  select(Song, contain_pronouns)
contain_pro

## # A tibble: 213 x 2
## # Groups:   Song [213]
##    Song                                              contain_pronouns
##    <chr>                                             <lgl>           
##  1 Across the Universe[c]                            FALSE           
##  2 Act Naturally(Buck Owens and the Buckaroos cover) FALSE           
##  3 All I've Got to Do                                TRUE            
##  4 All My Loving                                     TRUE            
##  5 All Together Now                                  FALSE           
##  6 All You Need Is Love[d]                           TRUE            
##  7 And I Love Her                                    TRUE            
##  8 And Your Bird Can Sing                            TRUE            
##  9 Anna (Go to Him)(Arthur Alexander cover)          FALSE           
## 10 Another Girl                                      FALSE           
## #  with 203 more rows

contain_pro %>% mutate(
    contain_lov = grepl("Love", Song)) %>%
  group_by(contain_lov) %>%
  summarize(num_song = n())

## # A tibble: 2 x 2
##   contain_lov num_song
##   <lgl>          <int>
## 1 FALSE            201
## 2 TRUE              12

contain_pro

## # A tibble: 213 x 2
## # Groups:   Song [213]
##    Song                                              contain_pronouns
##    <chr>                                             <lgl>           
##  1 Across the Universe[c]                            FALSE           
##  2 Act Naturally(Buck Owens and the Buckaroos cover) FALSE           
##  3 All I've Got to Do                                TRUE            
##  4 All My Loving                                     TRUE            
##  5 All Together Now                                  FALSE           
##  6 All You Need Is Love[d]                           TRUE            
##  7 And I Love Her                                    TRUE            
##  8 And Your Bird Can Sing                            TRUE            
##  9 Anna (Go to Him)(Arthur Alexander cover)          FALSE           
## 10 Another Girl                                      FALSE           
## #  with 203 more rows

contain_love <- beatles_songs %>%
  mutate(
    contain_love = grepl("Love", Song)) %>%   
  group_by(contain_love)

contain_love

## # A tibble: 213 x 7
## # Groups:   contain_love [2]
##    Song    `Core catalogue Songwriters LeadVocals  Year Ref.  contain_love
##    <chr>   <chr>            <chr>       <chr>      <int> <chr> <lgl>       
##  1 Across Let It Be        LennonMcCa John Lenn  1969 [7]   FALSE       
##  2 Act Na Help!            Johnny Rus Ringo Sta  1965 [8]   FALSE       
##  3 All I' With the Beatles LennonMcCa Lennon      1963 [9]   FALSE       
##  4 All My With the Beatles LennonMcCa Paul McCa  1963 [9]   FALSE       
##  5 All To Yellow Submarine LennonMcCa McCartney  1969 [10]  FALSE       
##  6 All Yo Magical Mystery LennonMcCa Lennon      1967 [11] TRUE        
##  7 And I  A Hard Day's Ni LennonMcCa McCartney   1964 [13]  TRUE        
##  8 And Yo Revolver         LennonMcCa Lennon      1966 [14]  FALSE       
##  9 Anna ( Please Please Me Arthur Ale Lennon      1963 [15]  FALSE       
## 10 Anothe Help!            LennonMcCa McCartney   1965 [8]   FALSE       
## #  with 203 more rows
…
