lab8
…
## Just to reduce the size of the data, we'll filter first by year
babynames1950to2000 <- babynames %>% filter(year >= 1950 & year <= 2000)
babynames1950to2000 %>%
  group_by(year, name) %>%
  summarize(num_births = sum(n))

## # A tibble: 820,608 x 3
## # Groups:   year [51]
##     year name    num_births
##    <dbl> <chr>        <int>
##  1  1950 Aaron          805
##  2  1950 Abagail          5
##  3  1950 Abbe            10
##  4  1950 Abbey            7
##  5  1950 Abbie           68
##  6  1950 Abbott           9
##  7  1950 Abby            73
##  8  1950 Abdul            8
##  9  1950 Abe             46
## 10  1950 Abel           170
## #  with 820,598 more rows

babynames1950to2000 %>%
  group_by(year, name) %>%
  summarize(
    num_males = sum(ifelse(sex == "M", 1, 0)),
    num_females = sum(ifelse(sex == "F", 1, 0)),
    total_births = sum(n))

## # A tibble: 820,608 x 5
## # Groups:   year [51]
##     year name    num_males num_females total_births
##    <dbl> <chr>       <dbl>       <dbl>        <int>
##  1  1950 Aaron           1           1          805
##  2  1950 Abagail         0           1            5
##  3  1950 Abbe            0           1           10
##  4  1950 Abbey           0           1            7
##  5  1950 Abbie           0           1           68
##  6  1950 Abbott          1           0            9
##  7  1950 Abby            1           1           73
##  8  1950 Abdul           1           0            8
##  9  1950 Abe             1           0           46
## 10  1950 Abel            1           0          170
## #  with 820,598 more rows
…
babynames_wide1950to2000 %>%
  group_by(name) %>%
  summarize(
    M = sum(M),
    F = sum(F),
    total = sum(total)
  ) %>%
  filter(total >= 10000) %>%  # exclude very uncommon names
  mutate(
    prop_male = M/total,
    asymmetry = abs(prop_male - 0.50)
    ) %>%
  arrange(asymmetry)

## # A tibble: 1,533 x 6
##    name        M     F total prop_male asymmetry
##    <chr>   <dbl> <dbl> <dbl>     <dbl>     <dbl>
##  1 Unknown  6949  6967 13916     0.499  0.000647
##  2 Kris    12369 12742 25111     0.493  0.00743 
##  3 Carey   12231 11708 23939     0.511  0.0109  
##  4 Peyton   9576 10006 19582     0.489  0.0110  
##  5 Kerry   43412 46000 89412     0.486  0.0145  
##  6 Jaime   50004 47051 97055     0.515  0.0152  
##  7 Ashton  12052 13180 25232     0.478  0.0224  
##  8 Blair   10351  9215 19566     0.529  0.0290  
##  9 Kendall 23721 20757 44478     0.533  0.0333  
## 10 Justice  6100  5312 11412     0.535  0.0345  
## #  with 1,523 more rows
…
