lab6
…
jessies_by_year <-
  babynames %>%
    filter(name == "Jessie") %>%
    group_by(year) %>%
    summarize(
      num_rows = n(),        # just a sanity check
      total_births = sum(n), # total "Jessies" that year
      num_males = sum(ifelse(sex == "M", n, 0)), # conditional counting
      num_females = sum(ifelse(sex == "F", n, 0))) %>%
    mutate(prop_males = num_males / total_births)
jessies_by_year

## # A tibble: 138 x 6
##     year num_rows total_births num_males num_females prop_males
##    <dbl>    <int>        <int>     <dbl>       <dbl>      <dbl>
##  1  1880        2          789       154         635      0.195
##  2  1881        2          804       143         661      0.178
##  3  1882        2          998       192         806      0.192
##  4  1883        2          984       151         833      0.153
##  5  1884        2         1065       177         888      0.166
##  6  1885        2         1154       202         952      0.175
##  7  1886        2         1184       181        1003      0.153
##  8  1887        2         1194       182        1012      0.152
##  9  1888        2         1454       254        1200      0.175
## 10  1889        2         1403       207        1196      0.148
## #  with 128 more rows
…
## # A tibble: 1 x 2
##   peak_number peak_year
##         <int>     <dbl>
## 1        5003      1918

babynames %>%
  group_by(name) %>%
  summarize(
    first_year = min(year),
    last_year = max(year))

## # A tibble: 97,310 x 3
##    name      first_year last_year
##    <chr>          <dbl>     <dbl>
##  1 Aaban           2007      2017
##  2 Aabha           2011      2016
##  3 Aabid           2003      2016
##  4 Aabir           2016      2016
##  5 Aabriella       2008      2017
##  6 Aada            2015      2015
##  7 Aadam           1987      2017
##  8 Aadan           2003      2017
##  9 Aadarsh         2000      2017
## 10 Aaden           2001      2017
## #  with 97,300 more rows
…
popular_names_1982 <- 
  babynames %>%
  filter(year == 1982) %>%
  group_by(name) %>%
  summarize(total_for_name = sum(n)) %>%
  mutate(
    overall_total = sum(total_for_name),
    proportion_of_total = total_for_name / overall_total) %>%
  filter(proportion_of_total >= 0.005) %>%
  select(name)
popular_names_1982

## # A tibble: 37 x 1
##    name       
##    <chr>      
##  1 Adam       
##  2 Amanda     
##  3 Amy        
##  4 Andrew     
##  5 Anthony    
##  6 Brandon    
##  7 Brian      
##  8 Christopher
##  9 Crystal    
## 10 Daniel     
## #  with 27 more rows
…
